\usetikzlibrary{arrows,automata}
\begin{tikzpicture}[->,>=stealth',shorten >=1pt,auto,node distance=2.8cm,semithick]
	\node[state,inner sep=1pt,minimum size=15pt] (s1) at (0.0, 2.0) {$1$};
	\node[state,inner sep=1pt,minimum size=15pt] (s2) at (1.2, 1.7) {$2$};
	\node[state,inner sep=1pt,minimum size=15pt] (s3) at (1.9, 0.6) {$3$};
	\node[state,inner sep=1pt,minimum size=15pt] (s4) at (1.9, -0.6) {$4$};
	\node[state,inner sep=1pt,minimum size=15pt] (s8) at (1.2, -1.7) {$8$};
	\node[state,inner sep=1pt,minimum size=15pt] (s9)  at (0.0, -2.0) {$9$};
	\node[state,inner sep=1pt,minimum size=15pt] (s16) at (-1.2, -1.7) {$16$};
	\node[state,inner sep=1pt,minimum size=15pt] (s27) at (-1.9, -0.6) {$27$};
	\node[state,inner sep=1pt,minimum size=15pt] (s64) at (-1.9, 0.6) {$64$};
	\node[state,inner sep=1pt,minimum size=15pt] (s81) at (-1.2, 1.7) {$81$};
	\path (s1) edge [loop above] (s1);
	\path (s2) edge (s4) edge (s8) edge (s16) edge (s64);
	\path (s3) edge (s9) edge (s27) edge (s81);
	\path (s4) edge (s16) edge (s64);
\end{tikzpicture}
